<?xml version="1.0" encoding="UTF-8" standalone="no"?>
<svg
   xmlns:dc="http://purl.org/dc/elements/1.1/"
   xmlns:cc="http://creativecommons.org/ns#"
   xmlns:rdf="http://www.w3.org/1999/02/22-rdf-syntax-ns#"
   xmlns:svg="http://www.w3.org/2000/svg"
   xmlns="http://www.w3.org/2000/svg"
   xmlns:sodipodi="http://sodipodi.sourceforge.net/DTD/sodipodi-0.dtd"
   xmlns:inkscape="http://www.inkscape.org/namespaces/inkscape"
   width="191.37402mm"
   height="264.79407mm"
   viewBox="0 0 191.37402 264.79407"
   version="1.1"
   id="svg8"
   inkscape:version="1.0.1 (3bc2e813f5, 2020-09-07, custom)"
   sodipodi:docname="Capitulo5Ejemplo3.svg">
  <defs
     id="defs2" />
  <sodipodi:namedview
     id="base"
     pagecolor="#ffffff"
     bordercolor="#666666"
     borderopacity="1.0"
     inkscape:pageopacity="0.0"
     inkscape:pageshadow="2"
     inkscape:zoom="0.37747205"
     inkscape:cx="4.6916056"
     inkscape:cy="459.74978"
     inkscape:document-units="mm"
     inkscape:current-layer="layer1"
     showgrid="false"
     inkscape:snap-global="false"
     inkscape:window-width="1366"
     inkscape:window-height="768"
     inkscape:window-x="0"
     inkscape:window-y="0"
     inkscape:window-maximized="1"
     inkscape:document-rotation="0" />
  <metadata
     id="metadata5">
    <rdf:RDF>
      <cc:Work
         rdf:about="">
        <dc:format>image/svg+xml</dc:format>
        <dc:type
           rdf:resource="http://purl.org/dc/dcmitype/StillImage" />
        <dc:title></dc:title>
      </cc:Work>
    </rdf:RDF>
  </metadata>
  <g
     inkscape:label="Capa 1"
     inkscape:groupmode="layer"
     id="layer1"
     transform="translate(-60.554596,-125.52105)"
     style="display:inline">
    <path
       style="fill:none;stroke:#000000;stroke-width:0.565;stroke-linecap:butt;stroke-linejoin:miter;stroke-miterlimit:4;stroke-dasharray:none;stroke-opacity:1"
       d="M 90.337099,214.14645 227.17909,213.61191"
       id="path199"
       inkscape:connector-curvature="0" />
    <path
       style="fill:none;stroke:#000000;stroke-width:0.565;stroke-linecap:butt;stroke-linejoin:miter;stroke-miterlimit:4;stroke-dasharray:3.39, 0.565;stroke-dashoffset:0;stroke-opacity:1"
       d="m 227.9809,130.75836 0.26727,26.72695"
       id="path1014"
       inkscape:connector-curvature="0" />
    <g
       id="g1170"
       style="display:inline">
      <path
         inkscape:connector-curvature="0"
         id="path1016"
         d="m 60.937451,231.51897 c 0,0 -2.672696,17.37252 19.510677,21.64883 22.183372,4.27631 98.087912,3.4745 98.087912,3.4745 0,0 19.22909,1.13782 33.78225,-3.93623 7.75151,-2.70262 14.17647,-7.16754 15.66261,-14.50536"
         style="fill:none;stroke:#00000f;stroke-width:0.565;stroke-linecap:butt;stroke-linejoin:miter;stroke-miterlimit:4;stroke-dasharray:2.26, 2.26;stroke-dashoffset:0;stroke-opacity:0.941176"
         sodipodi:nodetypes="cscsc" />
      <text
         xml:space="preserve"
         style="font-style:normal;font-variant:normal;font-weight:400;font-size:5.75771px;line-height:125%;font-family:'Segoe UI Emoji';text-align:start;letter-spacing:0px;word-spacing:0px;text-anchor:start;display:inline;fill:#000000;fill-opacity:1;stroke:none;stroke-width:0.392014"
         x="-262.98102"
         y="-204.80219"
         id="text1350-76-98-2-1"
         transform="matrix(-0.87924817,-0.00325275,0.00757317,-1.1373073,0,0)"><tspan
           style="stroke-width:0.392014"
           sodipodi:role="line"
           x="-262.98102"
           y="-204.80219"
           id="tspan1348-63-0-1-1"><tspan
             dx="0"
             dy="0"
             style="font-style:normal;font-variant:normal;font-weight:400;font-size:5.75771px;font-family:'Segoe UI Emoji';fill:#000000;stroke-width:0.392014"
             id="tspan1344-4-9-6-5">▼</tspan><tspan
             dx="0"
             dy="0"
             style="font-style:normal;font-variant:normal;font-weight:400;font-size:5.75771px;font-family:Calibri;fill:#000000;stroke-width:0.392014"
             id="tspan1346-46-7-4-03"> </tspan></tspan></text>
    </g>
    <g
       id="g1163">
      <path
         inkscape:connector-curvature="0"
         id="path197"
         d="M 60.937453,187.68677 237.33534,187.15223"
         style="fill:none;stroke:#000000;stroke-width:0.565;stroke-linecap:butt;stroke-linejoin:miter;stroke-miterlimit:4;stroke-dasharray:none;stroke-opacity:1" />
      <text
         xml:space="preserve"
         style="font-style:normal;font-variant:normal;font-weight:400;font-size:5.75771px;line-height:125%;font-family:'Segoe UI Emoji';text-align:start;letter-spacing:0px;word-spacing:0px;text-anchor:start;display:inline;fill:#000000;fill-opacity:1;stroke:none;stroke-width:0.392014"
         x="-225.55264"
         y="205.63878"
         id="text1350-76-98-2-1-4"
         transform="matrix(-0.03479204,-0.87856555,1.13657,-0.04164092,0,0)"><tspan
           style="stroke-width:0.392014"
           sodipodi:role="line"
           x="-225.55264"
           y="205.63878"
           id="tspan1348-63-0-1-1-0"><tspan
             dx="0"
             dy="0"
             style="font-style:normal;font-variant:normal;font-weight:400;font-size:5.75771px;font-family:'Segoe UI Emoji';fill:#000000;stroke-width:0.392014"
             id="tspan1344-4-9-6-5-2">▼</tspan><tspan
             dx="0"
             dy="0"
             style="font-style:normal;font-variant:normal;font-weight:400;font-size:5.75771px;font-family:Calibri;fill:#000000;stroke-width:0.392014"
             id="tspan1346-46-7-4-03-0"> </tspan></tspan></text>
    </g>
    <g
       id="g1131">
      <path
         inkscape:connector-curvature="0"
         id="path201"
         d="m 91.406177,188.75584 v 24.85607"
         style="fill:none;stroke:#000000;stroke-width:0.565;stroke-linecap:butt;stroke-linejoin:miter;stroke-miterlimit:4;stroke-dasharray:none;stroke-opacity:1" />
      <text
         xml:space="preserve"
         style="font-style:normal;font-variant:normal;font-weight:400;font-size:5.75771px;line-height:125%;font-family:'Segoe UI Emoji';text-align:start;letter-spacing:0px;word-spacing:0px;text-anchor:start;display:inline;fill:#000000;fill-opacity:1;stroke:none;stroke-width:0.392014"
         x="95.952209"
         y="190.42964"
         id="text1350-76-98-2-1-1"
         transform="matrix(0.87896397,-0.02258898,0.02585455,1.1370386,0,0)"><tspan
           style="stroke-width:0.392014"
           sodipodi:role="line"
           x="95.952209"
           y="190.42964"
           id="tspan1348-63-0-1-1-1"><tspan
             dx="0"
             dy="0"
             style="font-style:normal;font-variant:normal;font-weight:400;font-size:5.75771px;font-family:'Segoe UI Emoji';fill:#000000;stroke-width:0.392014"
             id="tspan1344-4-9-6-5-1">▼</tspan><tspan
             dx="0"
             dy="0"
             style="font-style:normal;font-variant:normal;font-weight:400;font-size:5.75771px;font-family:Calibri;fill:#000000;stroke-width:0.392014"
             id="tspan1346-46-7-4-03-2"> </tspan></tspan></text>
    </g>
    <g
       id="g1138">
      <path
         inkscape:connector-curvature="0"
         id="path203"
         d="m 122.40944,187.95404 0.26727,25.92514"
         style="fill:none;stroke:#000000;stroke-width:0.565;stroke-linecap:butt;stroke-linejoin:miter;stroke-miterlimit:4;stroke-dasharray:none;stroke-opacity:1" />
      <text
         xml:space="preserve"
         style="font-style:normal;font-variant:normal;font-weight:400;font-size:5.75771px;line-height:125%;font-family:'Segoe UI Emoji';text-align:start;letter-spacing:0px;word-spacing:0px;text-anchor:start;display:inline;fill:#000000;fill-opacity:1;stroke:none;stroke-width:0.392014"
         x="131.09384"
         y="191.3253"
         id="text1350-76-98-2-1-5"
         transform="matrix(0.87893212,-0.02379661,0.02741676,1.137002,0,0)"><tspan
           style="stroke-width:0.392014"
           sodipodi:role="line"
           x="131.09384"
           y="191.3253"
           id="tspan1348-63-0-1-1-9"><tspan
             dx="0"
             dy="0"
             style="font-style:normal;font-variant:normal;font-weight:400;font-size:5.75771px;font-family:'Segoe UI Emoji';fill:#000000;stroke-width:0.392014"
             id="tspan1344-4-9-6-5-5">▼</tspan><tspan
             dx="0"
             dy="0"
             style="font-style:normal;font-variant:normal;font-weight:400;font-size:5.75771px;font-family:Calibri;fill:#000000;stroke-width:0.392014"
             id="tspan1346-46-7-4-03-7"> </tspan></tspan></text>
    </g>
    <g
       id="g1145">
      <path
         inkscape:connector-curvature="0"
         id="path205"
         d="m 155.55086,187.68677 v 26.19241"
         style="fill:none;stroke:#000000;stroke-width:0.565;stroke-linecap:butt;stroke-linejoin:miter;stroke-miterlimit:4;stroke-dasharray:none;stroke-opacity:1" />
      <text
         xml:space="preserve"
         style="font-style:normal;font-variant:normal;font-weight:400;font-size:5.75771px;line-height:125%;font-family:'Segoe UI Emoji';text-align:start;letter-spacing:0px;word-spacing:0px;text-anchor:start;display:inline;fill:#000000;fill-opacity:1;stroke:none;stroke-width:0.392014"
         x="179.54808"
         y="185.7254"
         id="text1350-76-98-2-1-6"
         transform="matrix(0.87910859,0.0159996,-0.02406087,1.137078,0,0)"><tspan
           style="stroke-width:0.392014"
           sodipodi:role="line"
           x="179.54808"
           y="185.7254"
           id="tspan1348-63-0-1-1-5"><tspan
             dx="0"
             dy="0"
             style="font-style:normal;font-variant:normal;font-weight:400;font-size:5.75771px;font-family:'Segoe UI Emoji';fill:#000000;stroke-width:0.392014"
             id="tspan1344-4-9-6-5-6">▼</tspan><tspan
             dx="0"
             dy="0"
             style="font-style:normal;font-variant:normal;font-weight:400;font-size:5.75771px;font-family:Calibri;fill:#000000;stroke-width:0.392014"
             id="tspan1346-46-7-4-03-8"> </tspan></tspan></text>
    </g>
    <g
       id="g1156"
       transform="translate(-0.53453903,0.5345391)">
      <path
         inkscape:connector-curvature="0"
         id="path207"
         d="M 228.24817,164.43432 V 212.8101"
         style="fill:none;stroke:#000000;stroke-width:0.665;stroke-linecap:butt;stroke-linejoin:miter;stroke-miterlimit:4;stroke-dasharray:none;stroke-opacity:1" />
      <text
         xml:space="preserve"
         style="font-style:normal;font-variant:normal;font-weight:400;font-size:5.75771px;line-height:125%;font-family:'Segoe UI Emoji';text-align:start;letter-spacing:0px;word-spacing:0px;text-anchor:start;display:inline;fill:#000000;fill-opacity:1;stroke:none;stroke-width:0.392014"
         x="254.42117"
         y="190.44574"
         id="text1350-76-98-2-1-9"
         transform="matrix(0.87916506,-0.01251839,0.01282733,1.1372602,0,0)"><tspan
           style="stroke-width:0.392014"
           sodipodi:role="line"
           x="254.42117"
           y="190.44574"
           id="tspan1348-63-0-1-1-91"><tspan
             dx="0"
             dy="0"
             style="font-style:normal;font-variant:normal;font-weight:400;font-size:5.75771px;font-family:'Segoe UI Emoji';fill:#000000;stroke-width:0.392014"
             id="tspan1344-4-9-6-5-3">▼</tspan><tspan
             dx="0"
             dy="0"
             style="font-style:normal;font-variant:normal;font-weight:400;font-size:5.75771px;font-family:Calibri;fill:#000000;stroke-width:0.392014"
             id="tspan1346-46-7-4-03-9"> </tspan></tspan></text>
      <text
         xml:space="preserve"
         style="font-style:normal;font-variant:normal;font-weight:400;font-size:5.75771px;line-height:125%;font-family:'Segoe UI Emoji';text-align:start;letter-spacing:0px;word-spacing:0px;text-anchor:start;display:inline;fill:#000000;fill-opacity:1;stroke:none;stroke-width:0.392014"
         x="-263.35989"
         y="-142.14459"
         id="text1350-76-98-2-1-0"
         transform="matrix(-0.87924817,-0.00325275,0.00757317,-1.1373073,0,0)"><tspan
           style="stroke-width:0.392014"
           sodipodi:role="line"
           x="-263.35989"
           y="-142.14459"
           id="tspan1348-63-0-1-1-95"><tspan
             dx="0"
             dy="0"
             style="font-style:normal;font-variant:normal;font-weight:400;font-size:5.75771px;font-family:'Segoe UI Emoji';fill:#000000;stroke-width:0.392014"
             id="tspan1344-4-9-6-5-9">▼</tspan><tspan
             dx="0"
             dy="0"
             style="font-style:normal;font-variant:normal;font-weight:400;font-size:5.75771px;font-family:Calibri;fill:#000000;stroke-width:0.392014"
             id="tspan1346-46-7-4-03-07"> </tspan></tspan></text>
    </g>
    <text
       xml:space="preserve"
       style="font-style:normal;font-weight:normal;font-size:8.11135px;line-height:1.25;font-family:sans-serif;letter-spacing:0px;word-spacing:0px;fill:#000000;fill-opacity:1;stroke:none;stroke-width:0.202784"
       x="60.568275"
       y="198.41496"
       id="text1174"><tspan
         sodipodi:role="line"
         id="tspan1172"
         x="60.568275"
         y="198.41496"
         style="stroke-width:0.202784">0</tspan></text>
    <text
       xml:space="preserve"
       style="font-style:normal;font-weight:normal;font-size:8.38507px;line-height:1.25;font-family:sans-serif;letter-spacing:0px;word-spacing:0px;fill:#000000;fill-opacity:1;stroke:none;stroke-width:0.209627"
       x="93.040916"
       y="197.30847"
       id="text1178"><tspan
         sodipodi:role="line"
         id="tspan1176"
         x="93.040916"
         y="197.30847"
         style="stroke-width:0.209627">1</tspan></text>
    <text
       xml:space="preserve"
       style="font-style:normal;font-weight:normal;font-size:7.32519px;line-height:1.25;font-family:sans-serif;letter-spacing:0px;word-spacing:0px;fill:#000000;fill-opacity:1;stroke:none;stroke-width:0.18313"
       x="125.07101"
       y="196.77393"
       id="text1182"><tspan
         sodipodi:role="line"
         id="tspan1180"
         x="125.07101"
         y="196.77393"
         style="stroke-width:0.18313">2</tspan></text>
    <text
       xml:space="preserve"
       style="font-style:normal;font-weight:normal;font-size:6.67755px;line-height:1.25;font-family:sans-serif;letter-spacing:0px;word-spacing:0px;fill:#000000;fill-opacity:1;stroke:none;stroke-width:0.166939"
       x="157.74025"
       y="195.21146"
       id="text1186"><tspan
         sodipodi:role="line"
         id="tspan1184"
         x="157.74025"
         y="195.21146"
         style="stroke-width:0.166939">3</tspan></text>
    <text
       xml:space="preserve"
       style="font-style:normal;font-weight:normal;font-size:10.5833px;line-height:1.25;font-family:sans-serif;letter-spacing:0px;word-spacing:0px;fill:#000000;fill-opacity:1;stroke:none;stroke-width:0.264583"
       x="187.35594"
       y="194.3685"
       id="text1190"><tspan
         sodipodi:role="line"
         id="tspan1188"
         x="187.35594"
         y="194.3685"
         style="stroke-width:0.264583">...</tspan></text>
    <text
       xml:space="preserve"
       style="font-style:normal;font-weight:normal;font-size:6.6169px;line-height:1.25;font-family:sans-serif;letter-spacing:0px;word-spacing:0px;fill:#000000;fill-opacity:1;stroke:none;stroke-width:0.165422"
       x="229.64067"
       y="196.50278"
       id="text1194"><tspan
         sodipodi:role="line"
         id="tspan1192"
         x="229.64067"
         y="196.50278"
         style="stroke-width:0.165422">30ptv</tspan></text>
    <text
       xml:space="preserve"
       style="font-style:normal;font-weight:normal;font-size:6.6169px;line-height:1.25;font-family:sans-serif;letter-spacing:0px;word-spacing:0px;display:inline;fill:#000000;fill-opacity:1;stroke:none;stroke-width:0.165422"
       x="211.32303"
       y="224.75627"
       id="text1194-1"><tspan
         sodipodi:role="line"
         id="tspan1192-8"
         x="211.32303"
         y="224.75627"
         style="stroke-width:0.165422">R=$25.000</tspan></text>
    <text
       xml:space="preserve"
       style="font-style:normal;font-weight:normal;font-size:10.5833px;line-height:1.25;font-family:sans-serif;letter-spacing:0px;word-spacing:0px;fill:#000000;fill-opacity:1;stroke:none;stroke-width:0.264583"
       x="113.58955"
       y="221.63"
       id="text1216" />
    <text
       xml:space="preserve"
       style="font-style:normal;font-weight:normal;font-size:6.6169px;line-height:1.25;font-family:sans-serif;letter-spacing:0px;word-spacing:0px;display:inline;fill:#000000;fill-opacity:1;stroke:none;stroke-width:0.165422"
       x="110.14029"
       y="223.05823"
       id="text1194-1-6"><tspan
         sodipodi:role="line"
         id="tspan1192-8-4"
         x="110.14029"
         y="223.05823"
         style="stroke-width:0.165422">j=24% namv</tspan></text>
    <text
       xml:space="preserve"
       style="font-style:normal;font-weight:normal;font-size:6.6169px;line-height:1.25;font-family:sans-serif;letter-spacing:0px;word-spacing:0px;display:inline;fill:#000000;fill-opacity:1;stroke:none;stroke-width:0.165422"
       x="115.21843"
       y="235.08536"
       id="text1194-1-3"><tspan
         sodipodi:role="line"
         id="tspan1192-8-9"
         x="115.21843"
         y="235.08536"
         style="stroke-width:0.165422">n=30 ptv</tspan></text>
    <text
       xml:space="preserve"
       style="font-style:normal;font-weight:normal;font-size:6.6169px;line-height:1.25;font-family:sans-serif;letter-spacing:0px;word-spacing:0px;display:inline;fill:#000000;fill-opacity:1;stroke:none;stroke-width:0.165422"
       x="217.58266"
       y="161.85352"
       id="text1194-1-9"><tspan
         sodipodi:role="line"
         id="tspan1192-8-0"
         x="217.58266"
         y="161.85352"
         style="stroke-width:0.165422">VF = $ ¿?</tspan></text>
    <text
       xml:space="preserve"
       style="font-style:normal;font-weight:normal;font-size:6.6169px;line-height:1.25;font-family:sans-serif;letter-spacing:0px;word-spacing:0px;display:inline;fill:#000000;fill-opacity:1;stroke:none;stroke-width:0.165422"
       x="225.06619"
       y="130.58298"
       id="text1194-1-5"><tspan
         sodipodi:role="line"
         id="tspan1192-8-7"
         x="225.06619"
         y="130.58298"
         style="stroke-width:0.165422">ff</tspan></text>
    <path
       style="display:inline;fill:none;stroke:#000000;stroke-width:0.564999;stroke-linecap:butt;stroke-linejoin:miter;stroke-miterlimit:4;stroke-dasharray:none;stroke-opacity:1"
       d="M 95.891713,340.99817 232.73371,340.46363"
       id="path199-3"
       inkscape:connector-curvature="0" />
    <path
       style="display:inline;fill:none;stroke:#000000;stroke-width:0.656918;stroke-linecap:butt;stroke-linejoin:miter;stroke-miterlimit:4;stroke-dasharray:3.9415, 0.656918;stroke-dashoffset:0;stroke-opacity:1"
       d="m 224.46568,277.63806 0.26411,36.56385"
       id="path1014-6"
       inkscape:connector-curvature="0" />
    <g
       transform="matrix(0.9395315,0,0,1.000367,10.35476,133.18766)"
       id="g1170-7"
       style="display:inline">
      <path
         inkscape:connector-curvature="0"
         id="path1016-5"
         d="m 60.937451,231.51897 c 0,0 -2.672696,17.37252 19.510677,21.64883 22.183372,4.27631 98.087912,3.4745 98.087912,3.4745 0,0 19.22909,1.13782 33.78225,-3.93623 7.75151,-2.70262 14.17647,-7.16754 15.66261,-14.50536"
         style="fill:none;stroke:#00000f;stroke-width:0.565;stroke-linecap:butt;stroke-linejoin:miter;stroke-miterlimit:4;stroke-dasharray:2.26, 2.26;stroke-dashoffset:0;stroke-opacity:0.941176"
         sodipodi:nodetypes="cscsc" />
      <text
         xml:space="preserve"
         style="font-style:normal;font-variant:normal;font-weight:400;font-size:5.75771px;line-height:125%;font-family:'Segoe UI Emoji';text-align:start;letter-spacing:0px;word-spacing:0px;text-anchor:start;display:inline;fill:#000000;fill-opacity:1;stroke:none;stroke-width:0.392014"
         x="-262.98102"
         y="-204.80219"
         id="text1350-76-98-2-1-3"
         transform="matrix(-0.87924817,-0.00325275,0.00757317,-1.1373073,0,0)"><tspan
           style="stroke-width:0.392014"
           sodipodi:role="line"
           x="-262.98102"
           y="-204.80219"
           id="tspan1348-63-0-1-1-56"><tspan
             dx="0"
             dy="0"
             style="font-style:normal;font-variant:normal;font-weight:400;font-size:5.75771px;font-family:'Segoe UI Emoji';fill:#000000;stroke-width:0.392014"
             id="tspan1344-4-9-6-5-29">▼</tspan><tspan
             dx="0"
             dy="0"
             style="font-style:normal;font-variant:normal;font-weight:400;font-size:5.75771px;font-family:Calibri;fill:#000000;stroke-width:0.392014"
             id="tspan1346-46-7-4-03-1"> </tspan></tspan></text>
    </g>
    <g
       transform="translate(5.5546124,126.85171)"
       style="display:inline"
       id="g1163-2">
      <path
         inkscape:connector-curvature="0"
         id="path197-7"
         d="M 60.937453,187.68677 237.33534,187.15223"
         style="fill:none;stroke:#000000;stroke-width:0.565;stroke-linecap:butt;stroke-linejoin:miter;stroke-miterlimit:4;stroke-dasharray:none;stroke-opacity:1" />
      <text
         xml:space="preserve"
         style="font-style:normal;font-variant:normal;font-weight:400;font-size:5.75771px;line-height:125%;font-family:'Segoe UI Emoji';text-align:start;letter-spacing:0px;word-spacing:0px;text-anchor:start;display:inline;fill:#000000;fill-opacity:1;stroke:none;stroke-width:0.392014"
         x="-225.55264"
         y="205.63878"
         id="text1350-76-98-2-1-4-0"
         transform="matrix(-0.03479204,-0.87856555,1.13657,-0.04164092,0,0)"><tspan
           style="stroke-width:0.392014"
           sodipodi:role="line"
           x="-225.55264"
           y="205.63878"
           id="tspan1348-63-0-1-1-0-9"><tspan
             dx="0"
             dy="0"
             style="font-style:normal;font-variant:normal;font-weight:400;font-size:5.75771px;font-family:'Segoe UI Emoji';fill:#000000;stroke-width:0.392014"
             id="tspan1344-4-9-6-5-2-3">▼</tspan><tspan
             dx="0"
             dy="0"
             style="font-style:normal;font-variant:normal;font-weight:400;font-size:5.75771px;font-family:Calibri;fill:#000000;stroke-width:0.392014"
             id="tspan1346-46-7-4-03-0-6"> </tspan></tspan></text>
    </g>
    <g
       transform="translate(24.453422,126.85171)"
       style="display:inline"
       id="g1131-0">
      <path
         inkscape:connector-curvature="0"
         id="path201-6"
         d="m 91.406177,188.75584 v 24.85607"
         style="fill:none;stroke:#000000;stroke-width:0.565;stroke-linecap:butt;stroke-linejoin:miter;stroke-miterlimit:4;stroke-dasharray:none;stroke-opacity:1" />
      <text
         xml:space="preserve"
         style="font-style:normal;font-variant:normal;font-weight:400;font-size:5.75771px;line-height:125%;font-family:'Segoe UI Emoji';text-align:start;letter-spacing:0px;word-spacing:0px;text-anchor:start;display:inline;fill:#000000;fill-opacity:1;stroke:none;stroke-width:0.392014"
         x="95.952209"
         y="190.42964"
         id="text1350-76-98-2-1-1-2"
         transform="matrix(0.87896397,-0.02258898,0.02585455,1.1370386,0,0)"><tspan
           style="stroke-width:0.392014"
           sodipodi:role="line"
           x="95.952209"
           y="190.42964"
           id="tspan1348-63-0-1-1-1-6"><tspan
             dx="0"
             dy="0"
             style="font-style:normal;font-variant:normal;font-weight:400;font-size:5.75771px;font-family:'Segoe UI Emoji';fill:#000000;stroke-width:0.392014"
             id="tspan1344-4-9-6-5-1-1">▼</tspan><tspan
             dx="0"
             dy="0"
             style="font-style:normal;font-variant:normal;font-weight:400;font-size:5.75771px;font-family:Calibri;fill:#000000;stroke-width:0.392014"
             id="tspan1346-46-7-4-03-2-8"> </tspan></tspan></text>
    </g>
    <g
       transform="translate(47.509969,126.85171)"
       style="display:inline"
       id="g1138-7">
      <path
         inkscape:connector-curvature="0"
         id="path203-9"
         d="m 122.40944,187.95404 0.26727,25.92514"
         style="fill:none;stroke:#000000;stroke-width:0.565;stroke-linecap:butt;stroke-linejoin:miter;stroke-miterlimit:4;stroke-dasharray:none;stroke-opacity:1" />
      <text
         xml:space="preserve"
         style="font-style:normal;font-variant:normal;font-weight:400;font-size:5.75771px;line-height:125%;font-family:'Segoe UI Emoji';text-align:start;letter-spacing:0px;word-spacing:0px;text-anchor:start;display:inline;fill:#000000;fill-opacity:1;stroke:none;stroke-width:0.392014"
         x="131.09384"
         y="191.3253"
         id="text1350-76-98-2-1-5-2"
         transform="matrix(0.87893212,-0.02379661,0.02741676,1.137002,0,0)"><tspan
           style="stroke-width:0.392014"
           sodipodi:role="line"
           x="131.09384"
           y="191.3253"
           id="tspan1348-63-0-1-1-9-0"><tspan
             dx="0"
             dy="0"
             style="font-style:normal;font-variant:normal;font-weight:400;font-size:5.75771px;font-family:'Segoe UI Emoji';fill:#000000;stroke-width:0.392014"
             id="tspan1344-4-9-6-5-5-2">▼</tspan><tspan
             dx="0"
             dy="0"
             style="font-style:normal;font-variant:normal;font-weight:400;font-size:5.75771px;font-family:Calibri;fill:#000000;stroke-width:0.392014"
             id="tspan1346-46-7-4-03-7-3"> </tspan></tspan></text>
    </g>
    <g
       transform="translate(69.054612,126.09576)"
       style="display:inline"
       id="g1145-7">
      <path
         inkscape:connector-curvature="0"
         id="path205-5"
         d="m 155.55086,187.68677 v 26.19241"
         style="fill:none;stroke:#000000;stroke-width:0.565;stroke-linecap:butt;stroke-linejoin:miter;stroke-miterlimit:4;stroke-dasharray:none;stroke-opacity:1" />
      <text
         xml:space="preserve"
         style="font-style:normal;font-variant:normal;font-weight:400;font-size:5.75771px;line-height:125%;font-family:'Segoe UI Emoji';text-align:start;letter-spacing:0px;word-spacing:0px;text-anchor:start;display:inline;fill:#000000;fill-opacity:1;stroke:none;stroke-width:0.392014"
         x="179.54808"
         y="185.7254"
         id="text1350-76-98-2-1-6-9"
         transform="matrix(0.87910859,0.0159996,-0.02406087,1.137078,0,0)"><tspan
           style="stroke-width:0.392014"
           sodipodi:role="line"
           x="179.54808"
           y="185.7254"
           id="tspan1348-63-0-1-1-5-2"><tspan
             dx="0"
             dy="0"
             style="font-style:normal;font-variant:normal;font-weight:400;font-size:5.75771px;font-family:'Segoe UI Emoji';fill:#000000;stroke-width:0.392014"
             id="tspan1344-4-9-6-5-6-2">▼</tspan><tspan
             dx="0"
             dy="0"
             style="font-style:normal;font-variant:normal;font-weight:400;font-size:5.75771px;font-family:Calibri;fill:#000000;stroke-width:0.392014"
             id="tspan1346-46-7-4-03-8-8"> </tspan></tspan></text>
    </g>
    <text
       xml:space="preserve"
       style="font-style:normal;font-weight:normal;font-size:8.11136px;line-height:1.25;font-family:sans-serif;letter-spacing:0px;word-spacing:0px;display:inline;fill:#000000;fill-opacity:1;stroke:none;stroke-width:0.202784"
       x="66.122894"
       y="325.26669"
       id="text1174-9"><tspan
         sodipodi:role="line"
         id="tspan1172-7"
         x="66.122894"
         y="325.26669"
         style="stroke-width:0.202784">0</tspan></text>
    <text
       xml:space="preserve"
       style="font-style:normal;font-weight:normal;font-size:8.38507px;line-height:1.25;font-family:sans-serif;letter-spacing:0px;word-spacing:0px;display:inline;fill:#000000;fill-opacity:1;stroke:none;stroke-width:0.209627"
       x="118.25029"
       y="323.40424"
       id="text1178-3"><tspan
         sodipodi:role="line"
         id="tspan1176-6"
         x="118.25029"
         y="323.40424"
         style="stroke-width:0.209627">1</tspan></text>
    <text
       xml:space="preserve"
       style="font-style:normal;font-weight:normal;font-size:7.3252px;line-height:1.25;font-family:sans-serif;letter-spacing:0px;word-spacing:0px;display:inline;fill:#000000;fill-opacity:1;stroke:none;stroke-width:0.18313"
       x="174.47087"
       y="323.24768"
       id="text1182-1"><tspan
         sodipodi:role="line"
         id="tspan1180-2"
         x="174.47087"
         y="323.24768"
         style="stroke-width:0.18313">2</tspan></text>
    <text
       xml:space="preserve"
       style="font-style:normal;font-weight:normal;font-size:6.67755px;line-height:1.25;font-family:sans-serif;letter-spacing:0px;word-spacing:0px;display:inline;fill:#000000;fill-opacity:1;stroke:none;stroke-width:0.166939"
       x="229.81868"
       y="323.57507"
       id="text1186-9"><tspan
         sodipodi:role="line"
         id="tspan1184-3"
         x="229.81868"
         y="323.57507"
         style="stroke-width:0.166939">3</tspan></text>
    <text
       xml:space="preserve"
       style="font-style:normal;font-weight:normal;font-size:10.5833px;line-height:1.25;font-family:sans-serif;letter-spacing:0px;word-spacing:0px;display:inline;fill:#000000;fill-opacity:1;stroke:none;stroke-width:0.264583"
       x="192.91057"
       y="321.22021"
       id="text1190-1"><tspan
         sodipodi:role="line"
         id="tspan1188-9"
         x="192.91057"
         y="321.22021"
         style="stroke-width:0.264583">...</tspan></text>
    <text
       xml:space="preserve"
       style="font-style:normal;font-weight:normal;font-size:6.61691px;line-height:1.25;font-family:sans-serif;letter-spacing:0px;word-spacing:0px;display:inline;fill:#000000;fill-opacity:1;stroke:none;stroke-width:0.165422"
       x="104.9967"
       y="354.63184"
       id="text1194-1-4"><tspan
         sodipodi:role="line"
         id="tspan1192-8-78"
         x="104.9967"
         y="354.63184"
         style="stroke-width:0.165422">R1=$ ¿?</tspan></text>
    <text
       xml:space="preserve"
       style="font-style:normal;font-weight:normal;font-size:6.61691px;line-height:1.25;font-family:sans-serif;letter-spacing:0px;word-spacing:0px;display:inline;fill:#000000;fill-opacity:1;stroke:none;stroke-width:0.165422"
       x="111.91513"
       y="369.94269"
       id="text1194-1-6-4"><tspan
         sodipodi:role="line"
         id="tspan1192-8-4-5"
         x="111.91513"
         y="369.94269"
         style="stroke-width:0.165422">j1=24% namv</tspan></text>
    <text
       xml:space="preserve"
       style="font-style:normal;font-weight:normal;font-size:6.61691px;line-height:1.25;font-family:sans-serif;letter-spacing:0px;word-spacing:0px;display:inline;fill:#000000;fill-opacity:1;stroke:none;stroke-width:0.165422"
       x="211.42001"
       y="357.11893"
       id="text1194-1-9-0"><tspan
         sodipodi:role="line"
         id="tspan1192-8-0-3"
         x="211.42001"
         y="357.11893"
         style="stroke-width:0.165422">VF = $ 25.000</tspan></text>
    <text
       xml:space="preserve"
       style="font-style:normal;font-weight:normal;font-size:6.61691px;line-height:1.25;font-family:sans-serif;letter-spacing:0px;word-spacing:0px;display:inline;fill:#000000;fill-opacity:1;stroke:none;stroke-width:0.165422"
       x="223.43927"
       y="269.52994"
       id="text1194-1-5-6"><tspan
         sodipodi:role="line"
         id="tspan1192-8-7-1"
         x="223.43927"
         y="269.52994"
         style="stroke-width:0.165422">ff</tspan></text>
    <text
       xml:space="preserve"
       style="font-style:normal;font-weight:normal;font-size:6.9773px;line-height:1.25;font-family:sans-serif;letter-spacing:0px;word-spacing:0px;display:inline;fill:#000000;fill-opacity:1;stroke:none;stroke-width:0.174432"
       x="118.12912"
       y="380.84485"
       id="text299"><tspan
         sodipodi:role="line"
         id="tspan297"
         x="118.12912"
         y="380.84485"
         style="stroke-width:0.174432">n1=3pmv</tspan></text>
  </g>
</svg>
